<?xml version="1.0" encoding="UTF-8"?>
<session version="1.0">
<refactoring comment="Delete resource &apos;GUI_Anaconda2/newPackage/total_out_commuters&apos;" deleteContents="false" description="Delete resource &apos;GUI_Anaconda2/newPackage/total_out_commuters&apos;" element1="/GUI_Anaconda2/newPackage/total_out_commuters" flags="7" id="org.eclipse.ltk.core.refactoring.delete.resources" resources="1" stamp="1466594511570"/>
</session>